%YAML 1.1
%TAG !u! tag:unity3d.com,2011:
--- !u!114 &11400000
MonoBehaviour:
  m_ObjectHideFlags: 0
  m_PrefabParentObject: {fileID: 0}
  m_PrefabInternal: {fileID: 0}
  m_GameObject: {fileID: 0}
  m_Enabled: 1
  m_EditorHideFlags: 0
  m_Script: {fileID: 11500000, guid: 07ff6573a42a33445a66b3e9a142b0f9, type: 3}
  m_Name: BasicWhite
  m_EditorClassIdentifier: 
  Sprite: {fileID: 21300000, guid: cbe5d201209b48f4e9451534562d6c38, type: 3}
  OverlayObject: {fileID: 0}
  ExhaustEffect: {fileID: 1727728210326432, guid: 8b4aee6896ecbde4c91caab3b52127b4,
    type: 2}
  Name: Basic White
  Description: 
  Cost: 100
  LinkedEvent: 
  IsOwned: 1
