%YAML 1.1
%TAG !u! tag:unity3d.com,2011:
--- !u!74 &7400000
AnimationClip:
  m_ObjectHideFlags: 0
  m_PrefabParentObject: {fileID: 0}
  m_PrefabInternal: {fileID: 0}
  m_Name: Loading
  serializedVersion: 6
  m_Legacy: 0
  m_Compressed: 0
  m_UseHighQualityCurve: 1
  m_RotationCurves: []
  m_CompressedRotationCurves: []
  m_EulerCurves: []
  m_PositionCurves: []
  m_ScaleCurves: []
  m_FloatCurves: []
  m_PPtrCurves:
  - curve:
    - time: 0
      value: {fileID: 21300000, guid: 85518ee75aba85c44ae3a3668f67111b, type: 3}
    - time: 0.016666668
      value: {fileID: 21300000, guid: c0f86d8a2b0098a45941d4f80e3cab20, type: 3}
    - time: 0.033333335
      value: {fileID: 21300000, guid: 63f47e1a70f98e645bb6845db642b232, type: 3}
    - time: 0.05
      value: {fileID: 21300000, guid: 369857eca1be9ca43b4fead80a9f85c4, type: 3}
    - time: 0.06666667
      value: {fileID: 21300000, guid: a370b95f769535942927a36941177337, type: 3}
    - time: 0.083333336
      value: {fileID: 21300000, guid: 890a749fb111d4743a50ce9618227a65, type: 3}
    - time: 0.1
      value: {fileID: 21300000, guid: e5b367018aa684c4099e674d5cc97d2e, type: 3}
    - time: 0.11666667
      value: {fileID: 21300000, guid: 5ae407c454a471d409621c30dbfc571c, type: 3}
    - time: 0.13333334
      value: {fileID: 21300000, guid: f73adf64efd789f468f24c6d2ae0074c, type: 3}
    - time: 0.15
      value: {fileID: 21300000, guid: a2cc734fb730d974f8841ffb68db8b31, type: 3}
    - time: 0.16666667
      value: {fileID: 21300000, guid: 17d5809d6b70bf741a02b4fbc031316b, type: 3}
    - time: 0.18333334
      value: {fileID: 21300000, guid: 125426c469afa0146b42b651a266ba27, type: 3}
    - time: 0.2
      value: {fileID: 21300000, guid: 6ead9b2250976f4429d051673d4da091, type: 3}
    - time: 0.21666667
      value: {fileID: 21300000, guid: d019c95aa1dc9df42a0e84732407186d, type: 3}
    - time: 0.23333333
      value: {fileID: 21300000, guid: 39a37ae5aaaa43d408befb81c50f4386, type: 3}
    - time: 0.25
      value: {fileID: 21300000, guid: edb925473904e8341bbbe1ce6ef05cda, type: 3}
    - time: 0.26666668
      value: {fileID: 21300000, guid: 88365b0aad153f744968aee7a3058874, type: 3}
    - time: 0.28333336
      value: {fileID: 21300000, guid: 030e02e226309774f96ed83ba4d10fbe, type: 3}
    - time: 0.30000004
      value: {fileID: 21300000, guid: 6c738af8a19a4d54fbd88638c489cb7e, type: 3}
    - time: 0.31666672
      value: {fileID: 21300000, guid: 5120f610a04ce834eb86de90cfe92cdf, type: 3}
    - time: 0.3333334
      value: {fileID: 21300000, guid: 0ba8d4b18589a4846aaa551d7652bd0b, type: 3}
    - time: 0.35000008
      value: {fileID: 21300000, guid: 904c0fe771b41db43b732209ce25e726, type: 3}
    - time: 0.36666676
      value: {fileID: 21300000, guid: 2a5b06a1386a747409adbfac35266725, type: 3}
    - time: 0.38333344
      value: {fileID: 21300000, guid: cd3270957e1d5c546976ff11353d9086, type: 3}
    - time: 0.40000013
      value: {fileID: 21300000, guid: 9f61d5b784c71014e9f98a6e02f83500, type: 3}
    - time: 0.4166668
      value: {fileID: 21300000, guid: 5ab314f51c2f3494dbc27411321a7eb6, type: 3}
    - time: 0.4333335
      value: {fileID: 21300000, guid: 8796c195c2abfeb408ac942cc1c5ea68, type: 3}
    - time: 0.45000017
      value: {fileID: 21300000, guid: 8688ffe1cc67d7f408dcd1c7840d95c8, type: 3}
    - time: 0.46666685
      value: {fileID: 21300000, guid: a2967d8dbdf54f34e9969716d712df39, type: 3}
    - time: 0.48333353
      value: {fileID: 21300000, guid: e9c754616e4ec564cac37a110bafc874, type: 3}
    attribute: m_Sprite
    path: 
    classID: 114
    script: {fileID: -765806418, guid: f70555f144d8491a825f0804e09c671c, type: 3}
  m_SampleRate: 60
  m_WrapMode: 0
  m_Bounds:
    m_Center: {x: 0, y: 0, z: 0}
    m_Extent: {x: 0, y: 0, z: 0}
  m_ClipBindingConstant:
    genericBindings:
    - serializedVersion: 2
      path: 0
      attribute: 2015549526
      script: {fileID: -765806418, guid: f70555f144d8491a825f0804e09c671c, type: 3}
      typeID: 114
      customType: 0
      isPPtrCurve: 1
    pptrCurveMapping:
    - {fileID: 21300000, guid: 85518ee75aba85c44ae3a3668f67111b, type: 3}
    - {fileID: 21300000, guid: c0f86d8a2b0098a45941d4f80e3cab20, type: 3}
    - {fileID: 21300000, guid: 63f47e1a70f98e645bb6845db642b232, type: 3}
    - {fileID: 21300000, guid: 369857eca1be9ca43b4fead80a9f85c4, type: 3}
    - {fileID: 21300000, guid: a370b95f769535942927a36941177337, type: 3}
    - {fileID: 21300000, guid: 890a749fb111d4743a50ce9618227a65, type: 3}
    - {fileID: 21300000, guid: e5b367018aa684c4099e674d5cc97d2e, type: 3}
    - {fileID: 21300000, guid: 5ae407c454a471d409621c30dbfc571c, type: 3}
    - {fileID: 21300000, guid: f73adf64efd789f468f24c6d2ae0074c, type: 3}
    - {fileID: 21300000, guid: a2cc734fb730d974f8841ffb68db8b31, type: 3}
    - {fileID: 21300000, guid: 17d5809d6b70bf741a02b4fbc031316b, type: 3}
    - {fileID: 21300000, guid: 125426c469afa0146b42b651a266ba27, type: 3}
    - {fileID: 21300000, guid: 6ead9b2250976f4429d051673d4da091, type: 3}
    - {fileID: 21300000, guid: d019c95aa1dc9df42a0e84732407186d, type: 3}
    - {fileID: 21300000, guid: 39a37ae5aaaa43d408befb81c50f4386, type: 3}
    - {fileID: 21300000, guid: edb925473904e8341bbbe1ce6ef05cda, type: 3}
    - {fileID: 21300000, guid: 88365b0aad153f744968aee7a3058874, type: 3}
    - {fileID: 21300000, guid: 030e02e226309774f96ed83ba4d10fbe, type: 3}
    - {fileID: 21300000, guid: 6c738af8a19a4d54fbd88638c489cb7e, type: 3}
    - {fileID: 21300000, guid: 5120f610a04ce834eb86de90cfe92cdf, type: 3}
    - {fileID: 21300000, guid: 0ba8d4b18589a4846aaa551d7652bd0b, type: 3}
    - {fileID: 21300000, guid: 904c0fe771b41db43b732209ce25e726, type: 3}
    - {fileID: 21300000, guid: 2a5b06a1386a747409adbfac35266725, type: 3}
    - {fileID: 21300000, guid: cd3270957e1d5c546976ff11353d9086, type: 3}
    - {fileID: 21300000, guid: 9f61d5b784c71014e9f98a6e02f83500, type: 3}
    - {fileID: 21300000, guid: 5ab314f51c2f3494dbc27411321a7eb6, type: 3}
    - {fileID: 21300000, guid: 8796c195c2abfeb408ac942cc1c5ea68, type: 3}
    - {fileID: 21300000, guid: 8688ffe1cc67d7f408dcd1c7840d95c8, type: 3}
    - {fileID: 21300000, guid: a2967d8dbdf54f34e9969716d712df39, type: 3}
    - {fileID: 21300000, guid: e9c754616e4ec564cac37a110bafc874, type: 3}
  m_AnimationClipSettings:
    serializedVersion: 2
    m_AdditiveReferencePoseClip: {fileID: 0}
    m_AdditiveReferencePoseTime: 0
    m_StartTime: 0
    m_StopTime: 0.5000002
    m_OrientationOffsetY: 0
    m_Level: 0
    m_CycleOffset: 0
    m_HasAdditiveReferencePose: 0
    m_LoopTime: 1
    m_LoopBlend: 0
    m_LoopBlendOrientation: 0
    m_LoopBlendPositionY: 0
    m_LoopBlendPositionXZ: 0
    m_KeepOriginalOrientation: 0
    m_KeepOriginalPositionY: 1
    m_KeepOriginalPositionXZ: 0
    m_HeightFromFeet: 0
    m_Mirror: 0
  m_EditorCurves: []
  m_EulerEditorCurves: []
  m_HasGenericRootTransform: 0
  m_HasMotionFloatCurves: 0
  m_GenerateMotionCurves: 0
  m_Events: []
